
<articulo_apertura>
	<encabezado> --> script  y recursos
	<articulo-apertura>
	<articulo-encabezado>


<articulo-contenedor>
	<articulo-cuerpo>
		<bloque1>
		<.graficos01>
		<bloque2>
		<.opciones-ataud>
		<bloque3>
		<.salida-valle>
		<bloque4>
		<bloque5>
		<.explanada>
		<bloque6>
		<.videoloop01>
		<bloque7>
		<.helicoptero>
		<bloque8>
		<.mingorrubio>
        <bloque9>
        <bloque10>

		
		

